subject,relation,object
subject,relation,object
Maiken Glial Biology,is in,Learning
Record,2014Version of,Record
non-neuronal cells,is in,brain glia
Sep 9,2014version of,article
Record,2014Version at,UNIVERSITY OF SOUTH CAROLINA on October 7 2014nro
requiring,broad temporal and spatial scales of,integration
National Science Foundation,is in,Arlington
Record,2014Version of,Record
non-neuronal cells,is in,brain glia
neurons,is in,optimal condition
ing,is in,brain cells
requiring,broad temporal and spatial scales of,integration
National Science Foundation,is in,Arlington
cell communication,is in,brain
brain cells,forms of,cell
neurons,is in,optimal condition
standing problems,is in,fields
ing,is in,brain cells
cell communication,is in,brain
Health,5University of,California
brain cells,forms of,cell
R. Douglas Fields,Institutes of,Health
California,Institute for,Medicine
standing problems,is in,fields
Health,5University of,California
Medicine,7University of,Rochester
Rochester,8Office of,Naval Research
R. Douglas Fields,Institutes of,Health
California,Institute for,Medicine
Biology,is in,Learning
dependent manner,altering,networks
Medicine,7University of,Rochester
Rochester,8Office of,Naval Research
dependent manner,altering,neural networks
electrical signaling,is in,neurons
Biology,is in,Learning
Glia,is in,Spatial Integration types of glia
dependent manner,altering,networks
three major glial cell types,is in,brain
dependent manner,altering,neural networks
electrical signaling,is in,neurons
they,thus rewire,neural connections
synapses,toring,synaptic transmission
Glia,is in,Spatial Integration types of glia
three major glial cell types,is in,brain
Astrocytes,delivering nutrients to,neurons
Astrocytes,delivering,nutrients
they,thus rewire,neural connections
synapses,toring,synaptic transmission
synapse-specific modification,is,where paramount
modification,is,where paramount
Astrocytes,delivering nutrients to,neurons
Astrocytes,delivering,nutrients
odds,is with,traditional thinking learning
astrocytes,synaptic strength of,synapses
synapse-specific modification,is,where paramount
modification,is,where paramount
couple domains,synaptic strength of,synapses
information pro- cessing,is in,brain
odds,is with,traditional thinking learning
astrocytes,synaptic strength of,synapses
ion concentration,modulating locally,blood flow
ion concentration,modulating,blood flow
couple domains,synaptic strength of,synapses
information pro- cessing,is in,brain
neurotransmitters,of release is,red arrow
ion concentration,modulating locally,blood flow
0.1 M,is in,rodent brain
point changes,is in,neuronal synaptic connections
ion concentration,modulating,blood flow
neurotransmitters,of release is,red arrow
we,object against,background
difficult computational problem,is in,computer vision
0.1 M,is in,rodent brain
point changes,is in,neuronal synaptic connections
we,object against,background
This,is,computational
astrocytes,is in,receptor-mediated pathway
difficult computational problem,is in,computer vision
This,is,difficult
persistent depolarization,resulting in,high-frequency firing
conjunction,is with,synaptic plasticity
This,is,computational
astrocytes,is in,receptor-mediated pathway
astrocytes,limiting,spread of glutamate released at synapses
Computer simulations,is in,neuropil
persistent depolarization,resulting in,high-frequency firing
conjunction,is with,synaptic plasticity
Glia,is in,Learning
astrocytes,limiting,spread of glutamate released at synapses
transmission,is in,cortical activity
Computer simulations,is in,neuropil
Activation,is in,astrocytes
Glia,is in,Learning
human astrocytes,interact across,multiple cortical layers
Maiken Nedergaard,University of,Rochester
transmission,is in,cortical activity
Activation,is in,astrocytes
figure,is in,such illusions
human astrocytes,interact across,multiple cortical layers
conjunction,is with,figure
borders,is in,conjunction with figure
Maiken Nedergaard,University of,Rochester
figure,is in,such illusions
raven-bear logo,is reprinted with,permission of Alaska Geographic
cortex,in potentiation is,LTP
conjunction,is with,figure
borders,is in,conjunction with figure
cholinergic-induced long-term potentiation,is in,cortex
temporal coincidence,is in,firing of multiple inputs converging onto neuron
raven-bear logo,is reprinted with,permission of Alaska Geographic
cortex,in potentiation is,LTP
waves,oscillations of,neuronal activity link neuronal firing in phase
cholinergic-induced long-term potentiation,is in,cortex
neuronal activity link neuronal firing,is in,phase
mode,is with,other neurons
temporal coincidence,is in,firing of multiple inputs converging onto neuron
waves,oscillations of,neuronal activity link neuronal firing in phase
oligodendrocytes,provide,rapid impulse propagation
structural changes,is in,myelinated tracts
neuronal activity link neuronal firing,is in,phase
mode,is with,other neurons
changes,is in,white matter
dividing cells,is in,adult brain
oligodendrocytes,provide,rapid impulse propagation
structural changes,is in,myelinated tracts
possible role,is in,myelination
possible role,is in,adult brain
changes,is in,white matter
dividing cells,is in,adult brain
changes,is in,spike time arrival of neural activity
impulse activity,is in,axons
possible role,is in,myelination
development,is with,several axons undergoing by oligodendrocyte
possible role,is in,adult brain
changes,is in,spike time arrival of neural activity
little effort,has,has made
activity-depen dent changes,is in,timing of intercellular communication
impulse activity,is in,axons
development,is with,several axons undergoing by oligodendrocyte
electrical signaling,is in,neurons
little effort,has,has made
accelerating progress,is in,field
Such multitasking responses,is in,glia
activity-depen dent changes,is in,timing of intercellular communication
electrical signaling,is in,neurons
pro- cesses,being,measured
Child Health,of Institute is,NICHD
accelerating progress,is in,field
Such multitasking responses,is in,glia
Workshop,is in,Learning
National Institutes,Institute of,Child Health
pro- cesses,being,measured
Child Health,of Institute is,NICHD
National Science Foundation,Office of,Naval Research
Participants,included,S.-S
Workshop,is in,Learning
Protoplasmic astrocytes,occupy,separate anatomical domains
National Institutes,Institute of,Child Health
National Science Foundation,Office of,Naval Research
Protoplasmic astrocytes,is in,CA1 stratum radiatum
Emerging roles,is in,neural circuit development
Participants,included,S.-S
Protoplasmic astrocytes,occupy,separate anatomical domains
Microglia,is in,hippocampal region
Lindsay De Biase,Institute on,Abuse
Protoplasmic astrocytes,is in,CA1 stratum radiatum
Emerging roles,is in,neural circuit development
White matter,is in,learning
Acute cannabinoids,working memory through,astroglial CB1 receptor modulation of hippocampal LTD.
Microglia,is in,hippocampal region
Lindsay De Biase,Institute on,Abuse
Acute cannabinoids,working,memory
White matter,is in,learning
plasticity,is in,adult mice
Emerging roles,is in,behavior
Acute cannabinoids,working memory through,astroglial CB1 receptor modulation of hippocampal LTD.
Acute cannabinoids,working,memory
diffusion,is in,hippocampal neuropil
plasticity,is in,adult mice
Emerging roles,is in,behavior
Ventral hippocampal neurons,represent,behaviorally relevant contexts
Ventral hippocampal neurons,are shaped by,experience
diffusion,is in,hippocampal neuropil
Ventral hippocampal neurons,represent,behaviorally relevant contexts
Ventral hippocampal neurons,represent,contexts
Ventral hippocampal neurons,are shaped by,experience
blood flow,is in,information processing
Astrocytic complexity,distinguishes,human brain
Ventral hippocampal neurons,represent,contexts
S,RD. In,press
blood flow,is in,information processing
Astrocytic complexity,distinguishes,human brain
Fields RD.,is In,press
ticity,is in,oscillations of neuronal activity
S,RD. In,press
Fields RD.,is In,press
lactate transport,is regulated for,long term memory formation
Astrocyte-neuron lactate transport,is regulated for,long term memory formation
ticity,is in,oscillations of neuronal activity
lactate transport,is regulated for,long term memory formation
Microglial interactions,is with,synapses
initial events,is in,myelination
Astrocyte-neuron lactate transport,is regulated for,long term memory formation
Microglial interactions,is with,synapses
Astrocytes,modulate,neural network activity
Oligodendrocyte dynamics,is in,healthy adult CNS
initial events,is in,myelination
Astrocytes,modulate,neural network activity
Plasticity,is in,gray
neuroimaging changes,is in,brain structure
Oligodendrocyte dynamics,is in,healthy adult CNS
conjecture,is in,visual cortex
Plasticity,is in,gray
neuroimaging changes,is in,brain structure
conjecture,is in,visual cortex
