subject,relation,object
subject,relation,object
Kyndi,In,natural language conceptual graphs represent
everything,read by,Kyndi solution
Kyndi,of,natural language understanding
Cognitive Memory PREAMBLE Introduction,is In,Kyndi 's natural language conceptual graphs represent
Elsie Agent Agent Sitting MAT,represent,knowledge
Cognitive Memory,forms,core of Kyndi 's natural language understanding
questions,make,analogies
Elsie Agent Agent MAT,represent,knowledge
graphs,can represent,everything read by Kyndi solution
questions,recognize,similarity
CM,accomplish,tasks
everything,read by,Kyndi solution
rapid growth,is in,research efforts devoted
Kyndi,of,natural language understanding
Cognitive Memory,forms,core of Kyndi 's natural language understanding
Kyndi,of,founders
graph manipulation methods,however are challenging To,date
questions,make,analogies
questions,recognize,similarity
point,is in,space
novel quantum statistical methods,is in,modeling
CM,accomplish,tasks
graph,of,structure
rapid growth,is in,research efforts devoted
Kyndi,of,founders
representing,different aspects of,graph 's structure
graph manipulation methods,however are challenging To,date
Cognitive Memory,fragment of,knowledge
point,is in,space
point,is in,space
novel quantum statistical methods,is in,modeling
graph,of,structure
representing,different aspects of,graph 's structure
Cognitive Memory,fragment of,knowledge
point,is in,space
