subject,relation,object
subject,relation,object
associative learning theorists,is in,1970s
article,is in,press
CSB,followed by,US
experimental preparations,is in,human animals
further fear conditioning,is in,compound
discrete circuits,learn ing during,fear
discrete neural circuits,learn ing during,fear
contiguity,is,adequate
USs,supporting,learning
highlight areas,understanding,learning
Crown Copyright 2013,Published by,Elsevier Inc.
pected USs,supporting,learning
associations,is with,US
Introduction,is In,standard Pavlovian fear conditioning experiment
changes,is in,blood pressure
such variations,is in,CS
associative learning theorists,recasting,conditions for association formation
changes,is in,heart rate
associative learning theorists,is in,1970s
recasting,conditions for,association formation
synaptic communication,of potentiation is,specifically repeated activation by pre-synaptic neuron
CSB,followed by,US
further fear conditioning,is in,compound
potentiation,activation of,post-synaptic neuron
activity,is in,neuron pairs
contiguity,is,adequate
USs,supporting,learning
potentiation,activation by,pre-synaptic neuron
work,is in,associative learning
pected USs,supporting,learning
associations,is with,US
tion,is in,Pavlovian fear conditioning
nal step,is in,sophisticated stimulus selection process
such variations,is in,CS
associative learning theorists,recasting,conditions for association formation
events,is in,future
reconciliation,understanding,conditions for fear learning
recasting,conditions for,association formation
synaptic communication,of potentiation is,specifically repeated activation by pre-synaptic neuron
role,is in,association formation
richer understanding,understanding of,role of prediction error in association formation
potentiation,activation of,post-synaptic neuron
activity,is in,neuron pairs
individual neu,is in,lateral amygdala
there must variations,is in,effectiveness of CS
potentiation,activation by,pre-synaptic neuron
such variations,is in,CS
work,is in,associative learning
tion,is in,Pavlovian fear conditioning
variations,is in,effectiveness of shock US
nal step,is in,sophisticated stimulus selection process
CSX,of strength is,V
change,is in,associative strength of CSX
events,is in,future
reconciliation,understanding,conditions for fear learning
CSs present,of strengths is,RV
it,supporting,learning
role,is in,association formation
increments,is in,fear
richer understanding,understanding of,role of prediction error in association formation
individual neu,is in,lateral amygdala
neurons,is in,lateral amygdala
article,is in,press
there must variations,is in,effectiveness of CS
th Neurobiology,variations in,US effectiveness
th Neurobiology,variations during,Pavlovian fear conditioning in manner
such variations,is in,CS
Pavlovian fear conditioning,is in,manner
variations,is in,effectiveness of shock US
CSX,of strength is,V
Learning,of Neurobiology is,2013
Learning,of Neurobiology is,http://dx.doi.org/10.1016/j.nlm.2 variations in US effectiveness during Pavlovian fear conditioning in manner
change,is in,associative strength of CSX
CSs present,of strengths is,RV
http://dx.doi.org/10.1016/j.nlm.2 variations,is in,US effectiveness
increases,is in,expression of fear
it,supporting,learning
US delivery,is,unsignalled
greater activity,is in,LA neurons
neurons,is in,lateral amygdala
article,is in,press
US-evoked fMRI signals,is in,amyg
th Neurobiology,variations in,US effectiveness
findings,blocking paradigms at,least
differences,are preserved on,later test
th Neurobiology,variations during,Pavlovian fear conditioning in manner
Pavlovian fear conditioning,is in,manner
tion,derived from,Rescorla
US-evoked activity,is in,LA
Learning,of Neurobiology is,2013
Learning,of Neurobiology is,http://dx.doi.org/10.1016/j.nlm.2 variations in US effectiveness during Pavlovian fear conditioning in manner
US evoked activity,is in,LA
US,evoked,activity in LA neurons
http://dx.doi.org/10.1016/j.nlm.2 variations,is in,US effectiveness
increases,is in,expression of fear
US,evoked,activity
US delivery,is,unsignalled
greater activity,is in,LA neurons
variations,is in,US-elicited activity
US-evoked fMRI signals,is in,amyg
The,is,important
it,is innervated by,central amygdala neurons
findings,blocking paradigms at,least
it,is heavily innervated by,central amygdala neurons
PAG,is in,US processing
tion,derived from,Rescorla
US-evoked activity,is in,LA
same variations,is in,US-evoked depolarization as LA neurons
individual PAG neurons,Indeed show,same variations in US-evoked depolarization as LA neurons across course of fear conditioning
US evoked activity,is in,LA
US-elicited activity,is in,LA neurons
US-elicited activity,is in,PAG neurons
US,evoked,activity in LA neurons
PAG,is in,effectiveness of US inputs to LA neurons
activity,is in,LA neurons
US,evoked,activity
receptors,learning in,response to prediction errors
opioid receptors,learning in,response to prediction errors
variations,is in,US-elicited activity
The,is,important
US pairings,also prevent,reduc tions
acquisition,is in,rats
it,is innervated by,central amygdala neurons
it,is heavily innervated by,central amygdala neurons
expected shock USs,is in,hu
US pairings,also prevent reduc tions in,amygdala BOLD responses to expected shock USs in hu
PAG,is in,US processing
PAG opioid receptors,those in,vlPAG
arization as LA neurons
CSA,is in,Stage
individual PAG neurons,Indeed show,same variations in US-evoked depolarization as LA neurons across course of fear conditioning
US-elicited activity,is in,LA neurons
fear,prior training of,CSA
single trial,blocking,procedure
US-elicited activity,is in,PAG neurons
vlPAG opioid receptors,determine,variations in US effectiveness
PAG,is in,effectiveness of US inputs to LA neurons
receptors,learning in,response to prediction errors
variations,is in,US effectiveness
vlPAG opioid receptors,variations in,US effectiveness
opioid receptors,learning in,response to prediction errors
US pairings,also prevent,reduc tions
Activity,is in,thalamus
acquisition,is in,rats
expected shock USs,is in,hu
activity,is in,regions to expected shock US
variations,is in,ro
US pairings,also prevent reduc tions in,amygdala BOLD responses to expected shock USs in hu
PAG opioid receptors,those in,vlPAG
variations,is in,fear learning
fear learning,is in,rats
CSA,is in,Stage
fear,prior training of,CSA
example,is in,within-subjects blocking
changes,is in,PFC BOLD response during blocking task
single trial,blocking,procedure
vlPAG opioid receptors,determine,variations in US effectiveness
fear,is in,otherwise different behavioral para
fear CS,is,For example in study of fear extinction presented in absence of shock US
variations,is in,US effectiveness
shock US,is in,Stage I
ariations in,US effectiveness
Stage II,in US is,AB
Activity,is in,thalamus
Activity,is in,rodents
same shock US,is in,Stage II
bues CSX,is with,fear inhibitory properties
activity,is in,regions to expected shock US
variations,is in,ro
presentations trials,imbue X with,inhibitory properties
article,is in,press
variations,is in,fear learning
fear learning,is in,rats
differences,is in,contents of learning established
There may differences,is in,final associative strengths of stimuli subjected to different decre
example,is in,within-subjects blocking
changes,is in,PFC BOLD response during blocking task
Learning,of Neurobiology is,http://dx.doi.org/10.1016/j.nlm.2 behavior
Learning,of Neurobiology is,2013
fear,is in,otherwise different behavioral para
fear CS,is,For example in study of fear extinction presented in absence of shock US
error,is,when negative
negative error signal,is in,fear learning
shock US,is in,Stage I
Stage II,in US is,AB
decreases,is in,activity during states of negative prediction error
US,vary with,degree of positive prediction error
same shock US,is in,Stage II
BOLD,decreases in,activity during states of negative prediction error
bues CSX,is with,fear inhibitory properties
bidirectional coding,is in,fear
,inhibitory properties
article,is in,press
ed across,further time than rapid phasic responses seen in appetitive conditioning studies
they,impair fear extinction For,example
tablished
opioid receptor antagonists,augment,fear acquisition
There may differences,is in,final associative strengths of stimuli subjected to different decre
Learning,of Neurobiology is,http://dx.doi.org/10.1016/j.nlm.2 behavior
fear extinction learning,is in,rats
Systemic administra,tion of,naloxone
Learning,of Neurobiology is,2013
error,is,when negative
ing,is in,PFC
tion-induced increases,is in,mitogen activated protein kinase signal
negative error signal,is in,fear learning
decreases,is in,activity during states of negative prediction error
synaptic plasticity,is in,amygdala
they,reach,LA
US,vary with,degree of positive prediction error
relationship,be tween,also unclear
BOLD,decreases in,activity during states of negative prediction error
bidirectional coding,is in,fear
prediction error,is in,extinction designs
they,relied almost exclusively on,extinction designs
such errors,distributed across,further time than rapid phasic responses seen in appetitive conditioning studies
they,impair fear extinction For,example
21 May 2013,limitation of,contemporary neuro
sely,mirrors,behavioral treatments
opioid receptor antagonists,augment,fear acquisition
fear extinction learning,is in,rats
decrement,is in,fear observed during extinc
pharmacological,alter,habituation
Systemic administra,tion of,naloxone
ing,is in,PFC
valuable tool,is in,studies of Pavlovian appetitive prediction errors
extinction,sensitivity to,opioid
tion-induced increases,is in,mitogen activated protein kinase signal
synaptic plasticity,is in,amygdala
possibility,awaits,experimental investigation
role,is in,fear learning Dopamine
they,reach,LA
Pavlovian appetitive conditioning,is in,particular
relationship,be tween,also unclear
prediction error,is in,extinction designs
dopamine neurons,show,phasic activations to unpredicted rewards
depressions,is in,dopamine firing
they,relied almost exclusively on,extinction designs
21 May 2013,limitation of,contemporary neuro
variations,is in,activity
phasic dopamine responses,is in,within-subjects blocking design
sely,mirrors,behavioral treatments
article,is in,press
decrement,is in,fear observed during extinc
pharmacological,alter,habituation
th Neurobiology,activation to,blocked CS
valuable tool,is in,studies of Pavlovian appetitive prediction errors
th Neurobiology,activation on,test
Learning,of Neurobiology is,2013
extinction,sensitivity to,opioid
possibility,awaits,experimental investigation
Learning,of Neurobiology is,http://dx.doi.org/10.1016/j.nlm.2 activation to blocked CS on test
role,is in,fear learning Dopamine
Pavlovian appetitive conditioning,is in,particular
appetitive conditioned inhibitor,phasic activity of,dopamine neurons
neg ative error,evokes,phasic depressions
dopamine neurons,show,phasic activations to unpredicted rewards
groups,investigate,its role in aversive conditioning
depressions,is in,dopamine firing
many groups,investigate,its role in aversive conditioning
variations,is in,activity
phasic dopamine responses,is in,within-subjects blocking design
its role,is in,aversive conditioning
Dopaminergic neurotransmission,is in,amygdala
article,is in,press
th Neurobiology,activation to,blocked CS
example,For learning is,Pez 2004
Dopaminergic neurotransmission,is in,main projection targets of VTA dopamine neurons
th Neurobiology,activation on,test
Learning,of Neurobiology is,2013
division,is in,than core
dopamine levels,be in,creased
Learning,of Neurobiology is,http://dx.doi.org/10.1016/j.nlm.2 activation to blocked CS on test
appetitive conditioned inhibitor,phasic activity of,dopamine neurons
role,is in,fear learning
it,however suffers from,two limitations
neg ative error,evokes,phasic depressions
groups,investigate,its role in aversive conditioning
inhibition,is in,dopamine neurons
their predictors,subpopulation of,dopamine neurons
many groups,investigate,its role in aversive conditioning
residing,predomi in,nantly dorsolateral portion of midbrain
its role,is in,aversive conditioning
Dopaminergic neurotransmission,is in,amygdala
predomi,is in,nantly dorsolateral portion of midbrain
fear CS,decreased dopamine neurotransmission in,accumbens core
example,For learning is,Pez 2004
Dopaminergic neurotransmission,is in,main projection targets of VTA dopamine neurons
it,implicating dopamine in,fear learning
it,implicating,dopamine
division,is in,than core
dopamine levels,be in,creased
role,is in,Acb
role,is in,predictive fear learning
role,is in,fear learning
it,however suffers from,two limitations
Stage I,in footshock is,A
same context,in pairings is,AB
inhibition,is in,dopamine neurons
their predictors,subpopulation of,dopamine neurons
mals,is In,experiments
pairings,is with,footshock in Stage I
residing,predomi in,nantly dorsolateral portion of midbrain
predomi,is in,nantly dorsolateral portion of midbrain
Stage II,in pairings is,AB
footshock,is in,Stage I
fear CS,decreased dopamine neurotransmission in,accumbens core
shock pairings,is in,same context
it,implicating dopamine in,fear learning
it,implicating,dopamine
e II
role,is in,Acb
mals,is in,experimental group
blocking,was,dependent on dopamine neurotransmission in Acb during Stage II
role,is in,predictive fear learning
Stage I,in footshock is,A
dopamine neurotransmission,is in,Acb
fear learning,is in,control groups
same context,in pairings is,AB
mals,is In,experiments
dopamine actions,is in,Acb
Acb opioid manipulations,selectively affected,associability of blocked CS
pairings,is with,footshock in Stage I
Stage II,in pairings is,AB
ations,is in,CS
variation,is in,processing of blocked CS
footshock,is in,Stage I
shock pairings,is in,same context
role,is in,fear prediction error
shock pairings,is in,Stage II
roles,is in,other forms of learning
current issues,is in,neurobiology of learning
mals,is in,experimental group
blocking,was,dependent on dopamine neurotransmission in Acb during Stage II
increments,is in,associative strength
article,is in,press
dopamine neurotransmission,is in,Acb
fear learning,is in,control groups
Learning,of Neurobiology is,stimuli conditioned together
many conditions,under Neurobiology is,2013
dopamine actions,is in,Acb
Acb opioid manipulations,selectively affected,associability of blocked CS
Learning,of Neurobiology is,2013
many conditions,under Neurobiology is,http://dx.doi.org/10.1016/j.nlm.2 However
ations,is in,CS
variation,is in,processing of blocked CS
Learning,of Neurobiology is,http://dx.doi.org/10.1016/j.nlm.2 However
Rescorla,report,unequal associative change
role,is in,fear prediction error
roles,is in,other forms of learning
pairings,is with,shock
trained rats,is in,Stage I of experiment
current issues,is in,neurobiology of learning
rats,developed,freezing responses to CSs
increments,is in,associative strength
article,is in,press
compound,is with,CSB
This,is,blocking
Learning,of Neurobiology is,stimuli conditioned together
many conditions,under Neurobiology is,2013
rats,were,more afraid of BC than AD
they,had learned,fear to CSB than CSA during Stage II
Learning,of Neurobiology is,2013
they,had learned,more fear to CSB than CSA during Stage II
many conditions,under Neurobiology is,http://dx.doi.org/10.1016/j.nlm.2 However
Learning,of Neurobiology is,http://dx.doi.org/10.1016/j.nlm.2 However
difference,learning,rules
temporal difference,learning,rules
Rescorla,report,unequal associative change
pairings,is with,shock
extant trace,is with,new information
Memory reconsolidation,updating of,extant trace with new information
trained rats,is in,Stage I of experiment
rats,developed,freezing responses to CSs
question,Superficially seems,straightforward to test
first group,form,fear memory
compound,is with,CSB
This,is,blocking
difficulty,is with,approach
pairings,is with,shock
rats,were,more afraid of BC than AD
they,had learned,fear to CSB than CSA during Stage II
CSA,also fear CSC via,separate pairings with shock
separate pairings,is with,shock
they,had learned,more fear to CSB than CSA during Stage II
difference,learning,rules
CSA,also fear,CSC
CSB,pairing with,shock
temporal difference,learning,rules
transcriptional process,is in,rats undergoing
extant trace,is with,new information
Memory reconsolidation,updating of,extant trace with new information
differences,is in,level of fear to CS
compound test procedure,provides,solution
question,Superficially seems,straightforward to test
first group,form,fear memory
pairings,is with,shock
rats,fear,CSA
difficulty,is with,approach
pairings,is with,shock
CSB,is,paired
CSA,also fear CSC via,separate pairings with shock
Rats,are,tested
same number,is in,Stages
separate pairings,is with,shock
more fear,is,lost to A in Stage II
CSA,also fear,CSC
CSB,pairing with,shock
fear,is,lost to A in Stage II
CSB,is in,Stage II
transcriptional process,is in,rats undergoing
differences,is in,level of fear to CS
article,is in,press
Learning,of Neurobiology is,http://dx.doi.org/10.1016/j.nlm.2 during fear learning
compound test procedure,provides,solution
pairings,is with,shock
Learning,of Neurobiology is,2013
rats,fear,CSA
th Neurobiology,http://dx.doi.org/10.1016/j.nlm.2 during,fear learning
CSB,is,paired
Variations,is in,US processing
specific role,is in,vlPAG
Rats,are,tested
same number,is in,Stages
underlying variations,is in,CS processing
more fear,is,lost to A in Stage II
fear,is,lost to A in Stage II
dopamine receptors,is in,ventral striatum
that,encouraged by,Hebbian view learning process
CSB,is in,Stage II
article,is in,press
in dopamine release,is in,striatum
associative fear learning,is in,humans
Learning,of Neurobiology is,http://dx.doi.org/10.1016/j.nlm.2 during fear learning
Phasic excitation,is in,ventral VTA
Learning,of Neurobiology is,2013
th Neurobiology,http://dx.doi.org/10.1016/j.nlm.2 during,fear learning
Complementary roles,is in,temporal-difference fear learning
role,is in,instrumental conditioning
Variations,is in,US processing
specific role,is in,vlPAG
Interpreting patterns,is with,attentional-associative learning model
brain activation,is in,human fear conditioning
underlying variations,is in,CS processing
acquisition,is in,humans
Blockade,enhances,acquisition of conditioned fear in humans
variations,is in,CS processing
dopamine receptors,is in,ventral striatum
blocking effect,is in,aversive learning
Neurobiological mechanisms,underlying,blocking effect in aversive learning
that,encouraged by,Hebbian view learning process
in dopamine release,is in,striatum
underlying,blocking effect in,aversive learning
Endogenous opioids,is in,human fear extinction
associative fear learning,is in,humans
Naloxone freezing,is in,rat
Phasic excitation,is in,ventral VTA
Complementary roles,is in,temporal-difference fear learning
role,is in,predictive fear learning
Dopamine transmission,modulates surprise in,aversive blocking paradigm
role,is in,instrumental conditioning
Interpreting patterns,is with,attentional-associative learning model
Dopamine transmission,is in,amygdala
Opioid receptors,is in,nucleus accumbens
brain activation,is in,human fear conditioning
Dopamine activity,is in,nucleus accumbens
Dopamine activity,blocking in,fear conditioning
acquisition,is in,humans
Blockade,enhances,acquisition of conditioned fear in humans
expectation-modulated fear learning,is in,amygdala gray
Attention-like processes,is in,classical conditioning
blocking effect,is in,aversive learning
Neurobiological mechanisms,underlying,blocking effect in aversive learning
conditioned fear,is in,developing rat
role,is in,models of associative learning
underlying,blocking effect in,aversive learning
Endogenous opioids,is in,human fear extinction
associative fear learning,is in,auditory cortex
stimuli,is with,reinforcement
Naloxone freezing,is in,rat
role,is in,predictive fear learning
Variations,is in,associability of stimuli with reinforcement
Trends,is in,Neurosciences 1 12
Dopamine transmission,modulates surprise in,aversive blocking paradigm
Dopamine transmission,is in,amygdala
article,is in,press
Learning,of Neurobiology is,S.
Opioid receptors,is in,nucleus accumbens
Learning,of Neurobiology is,http://dx.doi.org/10.1016/j.nlm.2 Maren
Dopamine activity,is in,nucleus accumbens
Dopamine activity,blocking in,fear conditioning
Learning,of Neurobiology is,2013
Learning,of Neurobiology is,G. J.
expectation-modulated fear learning,is in,amygdala gray
Attention-like processes,is in,classical conditioning
Opioid receptors,is in,midbrain periaqueductal gray
role,is in,regulation of Pavlovian association formation
conditioned fear,is in,developing rat
role,is in,models of associative learning
Opioid receptors,is in,midbrain periaqueductal gray
Opioid receptors,regulate,extinction of Pavlovian fear conditioning
associative fear learning,is in,auditory cortex
stimuli,is with,reinforcement
antagonist,impedes,exposure
Opioid antagonist,impedes,exposure
Variations,is in,associability of stimuli with reinforcement
Trends,is in,Neurosciences 1 12
related plasticity,is in,ventrolateral periaqueductal gray matter
Frontiers,is in,Behavioral Neuroscience 4
article,is in,press
Learning,of Neurobiology is,S.
Variations,is in,effectiveness
Mesolimbic dopaminergic pathways,is in,fear conditioning
Learning,of Neurobiology is,http://dx.doi.org/10.1016/j.nlm.2 Maren
Progress,is in,Neurobiology 74 5 301 320
Learning,of Neurobiology is,2013
Reduction,is in,effectiveness of reinforcement
Learning,of Neurobiology is,G. J.
Opioid receptors,is in,midbrain periaqueductal gray
Variations,is in,effectiveness of reinforcement
role,is in,regulation of Pavlovian association formation
associative long-term potentiation,is in,amygdala
Fear conditioning,induces,associative long-term potentiation in amygdala
Opioid receptors,is in,midbrain periaqueductal gray
Opioid receptors,regulate,extinction of Pavlovian fear conditioning
Trends,is in,Neurosciences 24
role,is in,adaptive behaviour
antagonist,impedes,exposure
Opioid antagonist,impedes,exposure
high-intensity somatosensory stimulation,is in,theanesthetized monkey
Complementary roles,is in,aversive conditioning to contextual cues
related plasticity,is in,ventrolateral periaqueductal gray matter
Frontiers,is in,Behavioral Neuroscience 4
Coding,is in,conditioned inhibition paradigm
Variations,is in,effectiveness
Emotional states,encoded by,distinct signaling pathways
states,encoded by,distinct signaling pathways
Mesolimbic dopaminergic pathways,is in,fear conditioning
Progress,is in,Neurobiology 74 5 301 320
Trends,is in,Neurosciences 35
Uniform inhibition,is in,ventral tegmental area
Reduction,is in,effectiveness of reinforcement
Dopamine responses,comply with,basic assumptions of formal learning theory
Variations,is in,effectiveness of reinforcement
associative long-term potentiation,is in,amygdala
Stimulus selection,is in,animal discrimination learning
article,is in,press
Fear conditioning,induces,associative long-term potentiation in amygdala
Trends,is in,Neurosciences 24
Learning,of Neurobiology is,R. A.
Learning,of Neurobiology is,A. R.
role,is in,adaptive behaviour
high-intensity somatosensory stimulation,is in,theanesthetized monkey
Learning,of Neurobiology is,http://dx.doi.org/10.1016/j.nlm.2 Wagner
Complementary roles,is in,aversive conditioning to contextual cues
Learning,of Neurobiology is,2013
Inhibition,is in,Pavlovian conditioning
Coding,is in,conditioned inhibition paradigm
Emotional states,encoded by,distinct signaling pathways
conditioned dopamine release,is in,rat nucleus accumbens
Dopamine relese,is in,amygdaloid complex
states,encoded by,distinct signaling pathways
Trends,is in,Neurosciences 35
significance,is in,accumbens
role,is in,fear learning
Uniform inhibition,is in,ventral tegmental area
current issues,is in,neurobiology of learning
Dopamine responses,comply with,basic assumptions of formal learning theory
Stimulus selection,is in,animal discrimination learning
article,is in,press
Learning,of Neurobiology is,R. A.
Learning,of Neurobiology is,A. R.
Learning,of Neurobiology is,http://dx.doi.org/10.1016/j.nlm.2 Wagner
Learning,of Neurobiology is,2013
Inhibition,is in,Pavlovian conditioning
conditioned dopamine release,is in,rat nucleus accumbens
Dopamine relese,is in,amygdaloid complex
significance,is in,accumbens
role,is in,fear learning
current issues,is in,neurobiology of learning
